{
  "project_info": {
    "project_number": "529247068523",
    "firebase_url": "https://va-file-upload-tool.firebaseio.com",
    "project_id": "va-file-upload-tool",
    "storage_bucket": "va-file-upload-tool.appspot.com"
  },
  "client": [
    {
      "client_info": {
        "mobilesdk_app_id": "1:529247068523:android:1784564fae317f3d",
        "android_client_info": {
          "package_name": "erics.zintis.viafileuploadtool"
        }
      },
      "oauth_client": [
        {
          "client_id": "529247068523-r6svp29iujvhub9pqss1fltmpb5c16jp.apps.googleusercontent.com",
          "client_type": 1,
          "android_info": {
            "package_name": "erics.zintis.viafileuploadtool",
            "certificate_hash": "c87d585d0f88cbac97801c015703fcbb38387d1b"
          }
        },
        {
          "client_id": "529247068523-bhckuqha6ia1tda56n6aegd3gdldek7m.apps.googleusercontent.com",
          "client_type": 3
        }
      ],
      "api_key": [
        {
          "current_key": "AIzaSyBIm9g3VflJuIQZAlYrtXfMPV0VpVZIkI4"
        }
      ],
      "services": {
        "analytics_service": {
          "status": 1
        },
        "appinvite_service": {
          "status": 2,
          "other_platform_oauth_client": [
            {
              "client_id": "529247068523-bhckuqha6ia1tda56n6aegd3gdldek7m.apps.googleusercontent.com",
              "client_type": 3
            }
          ]
        },
        "ads_service": {
          "status": 2
        }
      }
    }
  ],
  "configuration_version": "1"
}